# Wavefront OBJ exported by WoW Model Viewer v0.7.0.5

mtllib hyjalrock02.mtl

v -2.053586 2.543646 -2.700571
v -2.325086 0.179590 -3.158066
v -4.418974 0.217676 0.119788
v 2.612473 3.737703 2.258835
v 5.225440 0.215960 0.435320
v 3.204058 3.440637 -0.234178
v 2.612473 3.737703 2.258835
v 4.362226 0.241192 3.463090
v 5.225440 0.215960 0.435320
v 4.362226 0.241192 3.463090
v 3.645061 -3.395629 0.217322
v 5.225440 0.215960 0.435320
v 4.362226 0.241192 3.463090
v 2.622450 -3.738925 2.619521
v 3.645061 -3.395629 0.217322
v -0.243694 4.294846 -0.519904
v 2.612473 3.737703 2.258835
v 3.204058 3.440637 -0.234178
v 0.046907 2.577624 -3.459438
v -2.325086 0.179590 -3.158066
v -2.053586 2.543646 -2.700571
v -0.243694 4.294846 -0.519904
v 0.046907 2.577624 -3.459438
v -2.053586 2.543646 -2.700571
v -0.243694 4.294846 -0.519904
v 2.010410 2.942609 -2.502441
v 0.046907 2.577624 -3.459438
v -0.243694 4.294846 -0.519904
v 3.204058 3.440637 -0.234178
v 2.010410 2.942609 -2.502441
v 3.204058 3.440637 -0.234178
v 3.197521 0.177325 -3.270169
v 2.010410 2.942609 -2.502441
v 3.204058 3.440637 -0.234178
v 5.225440 0.215960 0.435320
v 3.197521 0.177325 -3.270169
v 5.225440 0.215960 0.435320
v 2.014496 -2.975197 -2.141184
v 3.197521 0.177325 -3.270169
v 5.225440 0.215960 0.435320
v 3.645061 -3.395629 0.217322
v 2.014496 -2.975197 -2.141184
v 0.076664 -4.748887 -0.040678
v 2.014496 -2.975197 -2.141184
v 3.645061 -3.395629 0.217322
v 0.076664 -4.748887 -0.040678
v 3.645061 -3.395629 0.217322
v 2.622450 -3.738925 2.619521
v 2.010410 2.942609 -2.502441
v 0.241124 0.162972 -4.403123
v 0.046907 2.577624 -3.459438
v 2.010410 2.942609 -2.502441
v 3.197521 0.177325 -3.270169
v 0.241124 0.162972 -4.403123
v 3.197521 0.177325 -3.270169
v -0.067795 -2.667679 -3.658799
v 0.241124 0.162972 -4.403123
v 3.197521 0.177325 -3.270169
v 2.014496 -2.975197 -2.141184
v -0.067795 -2.667679 -3.658799
v 0.076664 -4.748887 -0.040678
v -0.067795 -2.667679 -3.658799
v 2.014496 -2.975197 -2.141184
v 0.046907 2.577624 -3.459438
v 0.241124 0.162972 -4.403123
v -2.325086 0.179590 -3.158066
v 0.241124 0.162972 -4.403123
v -2.179746 -2.953746 -2.282499
v -2.325086 0.179590 -3.158066
v 0.241124 0.162972 -4.403123
v -0.067795 -2.667679 -3.658799
v -2.179746 -2.953746 -2.282499
v 0.076664 -4.748887 -0.040678
v -2.179746 -2.953746 -2.282499
v -0.067795 -2.667679 -3.658799
v 0.076664 -4.748887 -0.040678
v -3.113982 -3.357447 -0.031311
v -2.179746 -2.953746 -2.282499
v -2.325086 0.179590 -3.158066
v -2.179746 -2.953746 -2.282499
v -3.113982 -3.357447 -0.031311
v -2.325086 0.179590 -3.158066
v -3.113982 -3.357447 -0.031311
v -4.418974 0.217676 0.119788
v -4.418974 0.217676 0.119788
v -3.113982 -3.357447 -0.031311
v -2.652640 -3.725456 2.478206
v 0.076664 -4.748887 -0.040678
v -2.652640 -3.725456 2.478206
v -3.113982 -3.357447 -0.031311
v 0.076664 -4.748887 -0.040678
v 0.074752 -3.787796 3.073855
v -2.652640 -3.725456 2.478206
v 0.076664 -4.748887 -0.040678
v 2.622450 -3.738925 2.619521
v 0.074752 -3.787796 3.073855
v 0.614023 0.256228 5.118707
v 0.074752 -3.787796 3.073855
v 2.622450 -3.738925 2.619521
v 0.614023 0.256228 5.118707
v 2.622450 -3.738925 2.619521
v 4.362226 0.241192 3.463090
v -0.021979 3.630151 3.272710
v 0.614023 0.256228 5.118707
v 4.362226 0.241192 3.463090
v -0.021979 3.630151 3.272710
v 4.362226 0.241192 3.463090
v 2.612473 3.737703 2.258835
v -0.243694 4.294846 -0.519904
v -0.021979 3.630151 3.272710
v 2.612473 3.737703 2.258835
v -3.326200 0.246343 3.574869
v 0.074752 -3.787796 3.073855
v 0.614023 0.256228 5.118707
v -3.326200 0.246343 3.574869
v -2.652640 -3.725456 2.478206
v 0.074752 -3.787796 3.073855
v -4.418974 0.217676 0.119788
v -2.652640 -3.725456 2.478206
v -3.326200 0.246343 3.574869
v -2.569425 3.255942 2.060388
v 0.614023 0.256228 5.118707
v -0.021979 3.630151 3.272710
v -2.569425 3.255942 2.060388
v -3.326200 0.246343 3.574869
v 0.614023 0.256228 5.118707
v -3.408725 2.851103 -0.292580
v -3.326200 0.246343 3.574869
v -2.569425 3.255942 2.060388
v -3.408725 2.851103 -0.292580
v -4.418974 0.217676 0.119788
v -3.326200 0.246343 3.574869
v -2.053586 2.543646 -2.700571
v -4.418974 0.217676 0.119788
v -3.408725 2.851103 -0.292580
v -0.243694 4.294846 -0.519904
v -2.569425 3.255942 2.060388
v -0.021979 3.630151 3.272710
v -0.243694 4.294846 -0.519904
v -3.408725 2.851103 -0.292580
v -2.569425 3.255942 2.060388
v -0.243694 4.294846 -0.519904
v -2.053586 2.543646 -2.700571
v -3.408725 2.851103 -0.292580
# 144 vertices

vt 0.425132 0.775323
vt 0.030560 0.568245
vt 0.430380 0.468384
vt 0.424035 0.775480
vt 0.431213 0.468236
vt 0.556911 0.679658
vt 0.424035 0.775480
vt 0.031444 0.568081
vt 0.431213 0.468236
vt 0.031444 0.568081
vt 0.389970 0.288643
vt 0.431213 0.468236
vt 0.031444 0.568081
vt 0.084381 0.255077
vt 0.389970 0.288643
vt 0.659986 0.792218
vt 0.424035 0.775480
vt 0.556911 0.679658
vt 0.556911 0.679655
vt 0.030560 0.568245
vt 0.424035 0.775480
vt 0.659986 0.792218
vt 0.556911 0.679655
vt 0.424035 0.775480
vt 0.659986 0.792218
vt 0.837538 0.680518
vt 0.556911 0.679655
vt 0.659986 0.792218
vt 0.556911 0.679658
vt 0.837538 0.680518
vt 0.556911 0.679658
vt 0.767316 0.361792
vt 0.837538 0.680518
vt 0.556911 0.679658
vt 0.431213 0.468236
vt 0.767316 0.361792
vt 0.431213 0.468236
vt 0.819752 0.147512
vt 0.767316 0.361792
vt 0.431213 0.468236
vt 0.389970 0.288643
vt 0.819752 0.147512
vt 0.437271 0.031054
vt 0.819752 0.147512
vt 0.389970 0.288643
vt 0.437271 0.031054
vt 0.389970 0.288643
vt 0.084381 0.255077
vt 0.837538 0.680518
vt 0.431214 0.468238
vt 0.556911 0.679655
vt 0.837538 0.680518
vt 0.767316 0.361792
vt 0.431214 0.468238
vt 0.767316 0.361792
vt 0.389970 0.288643
vt 0.431214 0.468238
vt 0.767316 0.361792
vt 0.819752 0.147512
vt 0.389970 0.288643
vt 0.437271 0.031054
vt 0.389970 0.288643
vt 0.819752 0.147512
vt 0.556911 0.679655
vt 0.431214 0.468238
vt 0.030560 0.568245
vt 0.431214 0.468238
vt 0.084381 0.255077
vt 0.030560 0.568245
vt 0.431214 0.468238
vt 0.389970 0.288643
vt 0.084381 0.255077
vt 0.437271 0.031054
vt 0.084381 0.255077
vt 0.389970 0.288643
vt 0.437271 0.031054
vt 0.388682 0.288870
vt 0.085410 0.254928
vt 0.030560 0.568245
vt 0.085410 0.254928
vt 0.388682 0.288870
vt 0.030560 0.568245
vt 0.388682 0.288870
vt 0.430380 0.468384
vt 0.430380 0.468384
vt 0.388682 0.288870
vt 0.819986 0.147463
vt 0.437271 0.031054
vt 0.819986 0.147463
vt 0.388682 0.288870
vt 0.437271 0.031054
vt 0.388682 0.288871
vt 0.819986 0.147463
vt 0.437271 0.031054
vt 0.085410 0.254928
vt 0.388682 0.288871
vt 0.430380 0.468384
vt 0.388682 0.288871
vt 0.085410 0.254928
vt 0.430380 0.468384
vt 0.085410 0.254928
vt 0.031444 0.568081
vt 0.555845 0.679849
vt 0.430380 0.468384
vt 0.031444 0.568081
vt 0.555845 0.679849
vt 0.031444 0.568081
vt 0.425132 0.775323
vt 0.659986 0.792218
vt 0.555845 0.679849
vt 0.425132 0.775323
vt 0.766616 0.361910
vt 0.388682 0.288871
vt 0.430380 0.468384
vt 0.766616 0.361910
vt 0.819986 0.147463
vt 0.388682 0.288871
vt 0.430380 0.468384
vt 0.819986 0.147463
vt 0.766616 0.361910
vt 0.837695 0.680485
vt 0.430380 0.468384
vt 0.555845 0.679849
vt 0.837695 0.680485
vt 0.766616 0.361910
vt 0.430380 0.468384
vt 0.555844 0.679844
vt 0.766616 0.361910
vt 0.837695 0.680485
vt 0.555844 0.679844
vt 0.430380 0.468384
vt 0.766616 0.361910
vt 0.425132 0.775323
vt 0.430380 0.468384
vt 0.555844 0.679844
vt 0.659986 0.792218
vt 0.837695 0.680485
vt 0.555845 0.679849
vt 0.659986 0.792218
vt 0.555844 0.679844
vt 0.837695 0.680485
vt 0.659986 0.792218
vt 0.425132 0.775323
vt 0.555844 0.679844
# 144 texture coordinates

vn -0.624161 0.522465 0.580907
vn -0.740555 0.004432 0.671981
vn -0.161613 -0.007155 0.986828
vn 0.306444 0.797858 -0.519148
vn -0.166297 0.061951 -0.984128
vn -0.263396 0.727057 -0.634043
vn 0.306444 0.797858 -0.519148
vn 0.672553 0.053069 -0.738143
vn -0.166297 0.061951 -0.984128
vn 0.672553 0.053069 -0.738143
vn -0.092444 -0.671626 -0.735101
vn -0.166297 0.061951 -0.984128
vn 0.672553 0.053069 -0.738143
vn 0.542801 -0.726646 -0.421134
vn -0.092444 -0.671626 -0.735101
vn -0.187022 0.978510 0.086838
vn 0.306444 0.797858 -0.519148
vn -0.263396 0.727057 -0.634043
vn -0.810208 0.574924 0.114129
vn -0.740555 0.004432 0.671981
vn -0.624161 0.522465 0.580907
vn -0.187022 0.978510 0.086838
vn -0.810208 0.574924 0.114129
vn -0.624161 0.522465 0.580907
vn -0.187022 0.978510 0.086838
vn -0.661270 0.645736 -0.381769
vn -0.810208 0.574924 0.114129
vn -0.187022 0.978510 0.086838
vn -0.263396 0.727057 -0.634043
vn -0.661270 0.645736 -0.381769
vn -0.263396 0.727057 -0.634043
vn -0.743242 0.014213 -0.668871
vn -0.661270 0.645736 -0.381769
vn -0.263396 0.727057 -0.634043
vn -0.166297 0.061951 -0.984128
vn -0.743242 0.014213 -0.668871
vn -0.166297 0.061951 -0.984128
vn -0.561673 -0.613071 -0.555578
vn -0.743242 0.014213 -0.668871
vn -0.166297 0.061951 -0.984128
vn -0.092444 -0.671626 -0.735101
vn -0.561673 -0.613071 -0.555578
vn -0.156855 -0.987593 0.007572
vn -0.561673 -0.613071 -0.555578
vn -0.092444 -0.671626 -0.735101
vn -0.156855 -0.987593 0.007572
vn -0.092444 -0.671626 -0.735101
vn 0.542801 -0.726646 -0.421134
vn -0.661270 0.645736 -0.381769
vn -0.995685 0.067157 0.064041
vn -0.810208 0.574924 0.114129
vn -0.661270 0.645736 -0.381769
vn -0.743242 0.014213 -0.668871
vn -0.995685 0.067157 0.064041
vn -0.743242 0.014213 -0.668871
vn -0.799456 -0.595587 -0.078401
vn -0.995685 0.067157 0.064041
vn -0.743242 0.014213 -0.668871
vn -0.561673 -0.613071 -0.555578
vn -0.799456 -0.595587 -0.078401
vn -0.156855 -0.987593 0.007572
vn -0.799456 -0.595587 -0.078401
vn -0.561673 -0.613071 -0.555578
vn -0.810208 0.574924 0.114129
vn -0.995685 0.067157 0.064041
vn -0.740555 0.004432 0.671981
vn -0.995685 0.067157 0.064041
vn -0.655370 -0.519731 0.548060
vn -0.740555 0.004432 0.671981
vn -0.995685 0.067157 0.064041
vn -0.799456 -0.595587 -0.078401
vn -0.655370 -0.519731 0.548060
vn -0.156855 -0.987593 0.007572
vn -0.655370 -0.519731 0.548060
vn -0.799456 -0.595587 -0.078401
vn -0.156855 -0.987593 0.007572
vn -0.264331 -0.577222 0.772621
vn -0.655370 -0.519731 0.548060
vn -0.740555 0.004432 0.671981
vn -0.655370 -0.519731 0.548060
vn -0.264331 -0.577222 0.772621
vn -0.740555 0.004432 0.671981
vn -0.264331 -0.577222 0.772621
vn -0.161613 -0.007155 0.986828
vn -0.161613 -0.007155 0.986828
vn -0.264331 -0.577222 0.772621
vn 0.388742 -0.674615 0.627514
vn -0.156855 -0.987593 0.007572
vn 0.388742 -0.674615 0.627514
vn -0.264331 -0.577222 0.772621
vn -0.156855 -0.987593 0.007572
vn 0.726303 -0.681638 0.088616
vn 0.388742 -0.674615 0.627514
vn -0.156855 -0.987593 0.007572
vn 0.542801 -0.726646 -0.421134
vn 0.726303 -0.681638 0.088616
vn 0.998700 0.030723 0.040677
vn 0.726303 -0.681638 0.088616
vn 0.542801 -0.726646 -0.421134
vn 0.998700 0.030723 0.040677
vn 0.542801 -0.726646 -0.421134
vn 0.672553 0.053069 -0.738143
vn 0.653487 0.756931 -0.003146
vn 0.998700 0.030723 0.040677
vn 0.672553 0.053069 -0.738143
vn 0.653487 0.756931 -0.003146
vn 0.672553 0.053069 -0.738143
vn 0.306444 0.797858 -0.519148
vn -0.187022 0.978510 0.086838
vn 0.653487 0.756931 -0.003146
vn 0.306444 0.797858 -0.519148
vn 0.691681 0.061653 0.719567
vn 0.726303 -0.681638 0.088616
vn 0.998700 0.030723 0.040677
vn 0.691681 0.061653 0.719567
vn 0.388742 -0.674615 0.627514
vn 0.726303 -0.681638 0.088616
vn -0.161613 -0.007155 0.986828
vn 0.388742 -0.674615 0.627514
vn 0.691681 0.061653 0.719567
vn 0.472941 0.705355 0.528016
vn 0.998700 0.030723 0.040677
vn 0.653487 0.756931 -0.003146
vn 0.472941 0.705355 0.528016
vn 0.691681 0.061653 0.719567
vn 0.998700 0.030723 0.040677
vn -0.070769 0.620945 0.780653
vn 0.691681 0.061653 0.719567
vn 0.472941 0.705355 0.528016
vn -0.070769 0.620945 0.780653
vn -0.161613 -0.007155 0.986828
vn 0.691681 0.061653 0.719567
vn -0.624161 0.522465 0.580907
vn -0.161613 -0.007155 0.986828
vn -0.070769 0.620945 0.780653
vn -0.187022 0.978510 0.086838
vn 0.472941 0.705355 0.528016
vn 0.653487 0.756931 -0.003146
vn -0.187022 0.978510 0.086838
vn -0.070769 0.620945 0.780653
vn 0.472941 0.705355 0.528016
vn -0.187022 0.978510 0.086838
vn -0.624161 0.522465 0.580907
vn -0.070769 0.620945 0.780653
# 144 normals

g Geoset_000
usemtl ASH02
s 1
f 1/1/1 2/2/2 3/3/3
f 4/4/4 5/5/5 6/6/6
f 7/7/7 8/8/8 9/9/9
f 10/10/10 11/11/11 12/12/12
f 13/13/13 14/14/14 15/15/15
f 16/16/16 17/17/17 18/18/18
f 19/19/19 20/20/20 21/21/21
f 22/22/22 23/23/23 24/24/24
f 25/25/25 26/26/26 27/27/27
f 28/28/28 29/29/29 30/30/30
f 31/31/31 32/32/32 33/33/33
f 34/34/34 35/35/35 36/36/36
f 37/37/37 38/38/38 39/39/39
f 40/40/40 41/41/41 42/42/42
f 43/43/43 44/44/44 45/45/45
f 46/46/46 47/47/47 48/48/48
f 49/49/49 50/50/50 51/51/51
f 52/52/52 53/53/53 54/54/54
f 55/55/55 56/56/56 57/57/57
f 58/58/58 59/59/59 60/60/60
f 61/61/61 62/62/62 63/63/63
f 64/64/64 65/65/65 66/66/66
f 67/67/67 68/68/68 69/69/69
f 70/70/70 71/71/71 72/72/72
f 73/73/73 74/74/74 75/75/75
f 76/76/76 77/77/77 78/78/78
f 79/79/79 80/80/80 81/81/81
f 82/82/82 83/83/83 84/84/84
f 85/85/85 86/86/86 87/87/87
f 88/88/88 89/89/89 90/90/90
f 91/91/91 92/92/92 93/93/93
f 94/94/94 95/95/95 96/96/96
f 97/97/97 98/98/98 99/99/99
f 100/100/100 101/101/101 102/102/102
f 103/103/103 104/104/104 105/105/105
f 106/106/106 107/107/107 108/108/108
f 109/109/109 110/110/110 111/111/111
f 112/112/112 113/113/113 114/114/114
f 115/115/115 116/116/116 117/117/117
f 118/118/118 119/119/119 120/120/120
f 121/121/121 122/122/122 123/123/123
f 124/124/124 125/125/125 126/126/126
f 127/127/127 128/128/128 129/129/129
f 130/130/130 131/131/131 132/132/132
f 133/133/133 134/134/134 135/135/135
f 136/136/136 137/137/137 138/138/138
f 139/139/139 140/140/140 141/141/141
f 142/142/142 143/143/143 144/144/144
# 48 triangles in group

# 48 triangles total

