# Wavefront OBJ exported by WoW Model Viewer v0.7.0.5

mtllib generaloutpost01.mtl

v 2.233971 5.296887 -0.029618
v 1.688688 6.261822 0.405980
v 2.225619 5.300046 0.916560
v -3.317679 -0.313890 0.627827
v -3.313431 -0.313890 0.141648
v -3.260439 5.363541 0.662360
v -2.295630 5.363541 0.118517
v -1.781433 6.633657 0.375698
v -1.292715 4.990662 -0.201025
v -2.301462 5.363541 0.786542
v -1.781433 6.633657 0.375698
v -2.295630 5.363541 0.118517
v -1.329651 4.991994 0.937926
v -1.781433 6.633657 0.375698
v -2.301462 5.363541 0.786542
v -1.292715 4.990662 -0.201025
v -1.781433 6.633657 0.375698
v -1.329651 4.991994 0.937926
v -1.292715 4.990662 -0.201025
v -0.638502 5.934582 0.385670
v 0.057809 5.292414 0.137038
v -1.329651 4.991994 0.937926
v -0.638502 5.934582 0.385670
v -1.292715 4.990662 -0.201025
v 0.003912 4.903434 0.840310
v -0.638502 5.934582 0.385670
v -1.329651 4.991994 0.937926
v 0.057809 5.292414 0.137038
v -0.638502 5.934582 0.385670
v 0.003912 4.903434 0.840310
v 0.057809 5.292414 0.137038
v 0.530952 5.756157 0.395880
v 1.022670 4.870638 -0.131548
v 0.003912 4.903434 0.840310
v 0.530952 5.756157 0.395880
v 0.057809 5.292414 0.137038
v 0.981297 4.873032 1.034640
v 0.530952 5.756157 0.395880
v 0.003912 4.903434 0.840310
v 1.022670 4.870638 -0.131548
v 0.530952 5.756157 0.395880
v 0.981297 4.873032 1.034640
v 1.022670 4.870638 -0.131548
v 1.688688 6.261822 0.405980
v 2.233971 5.296887 -0.029618
v 2.410011 -0.328415 -0.108580
v 1.022670 4.870638 -0.131548
v 2.233971 5.296887 -0.029618
v 2.410011 -0.328415 -0.108580
v 0.057809 5.292414 0.137038
v 1.022670 4.870638 -0.131548
v 0.057809 5.292414 0.137038
v 2.410011 -0.328415 -0.108580
v -2.471346 -0.313890 0.148997
v -2.471346 -0.313890 0.148997
v -1.292715 4.990662 -0.201025
v 0.057809 5.292414 0.137038
v -2.471346 -0.313890 0.148997
v -2.295630 5.363541 0.118517
v -1.292715 4.990662 -0.201025
v -2.475585 -0.313890 0.635178
v -1.329651 4.991994 0.937926
v -2.301462 5.363541 0.786542
v -2.475585 -0.313890 0.635178
v 0.003912 4.903434 0.840310
v -1.329651 4.991994 0.937926
v 0.003912 4.903434 0.840310
v -2.475585 -0.313890 0.635178
v 2.403360 -0.313473 0.739895
v 2.403360 -0.313473 0.739895
v 0.981297 4.873032 1.034640
v 0.003912 4.903434 0.840310
v 2.403360 -0.313473 0.739895
v 2.225619 5.300046 0.916560
v 0.981297 4.873032 1.034640
v -2.778021 6.423831 0.389425
v -2.301462 5.363541 0.786542
v -2.295630 5.363541 0.118517
v -2.778021 6.423831 0.389425
v -3.255597 5.363541 0.108118
v -3.260439 5.363541 0.662360
v -2.778021 6.423831 0.389425
v -2.773188 5.363541 -0.164816
v -3.255597 5.363541 0.108118
v -2.778021 6.423831 0.389425
v -2.295630 5.363541 0.118517
v -2.773188 5.363541 -0.164816
v -2.778021 6.423831 0.389425
v -2.782863 5.363541 0.943677
v -2.301462 5.363541 0.786542
v -2.778021 6.423831 0.389425
v -3.260439 5.363541 0.662360
v -2.782863 5.363541 0.943677
v -2.471346 -0.313890 0.148997
v -2.773188 5.363541 -0.164816
v -2.295630 5.363541 0.118517
v -2.471346 -0.313890 0.148997
v -2.890269 -0.313890 -0.097767
v -2.773188 5.363541 -0.164816
v -2.890269 -0.313890 -0.097767
v -3.255597 5.363541 0.108118
v -2.773188 5.363541 -0.164816
v -2.890269 -0.313890 -0.097767
v -3.313431 -0.313890 0.141648
v -3.255597 5.363541 0.108118
v -3.313431 -0.313890 0.141648
v -3.260439 5.363541 0.662360
v -3.255597 5.363541 0.108118
v -3.313431 -0.313890 0.141648
v -3.317679 -0.313890 0.627827
v -3.260439 5.363541 0.662360
v -3.317679 -0.313890 0.627827
v -2.782863 5.363541 0.943677
v -3.260439 5.363541 0.662360
v -3.317679 -0.313890 0.627827
v -2.898756 -0.313890 0.874590
v -2.782863 5.363541 0.943677
v -2.898756 -0.313890 0.874590
v -2.301462 5.363541 0.786542
v -2.782863 5.363541 0.943677
v -2.898756 -0.313890 0.874590
v -2.475585 -0.313890 0.635178
v -2.301462 5.363541 0.786542
v 2.712969 6.132978 0.251705
v 3.195378 5.072679 -0.021228
v 2.717802 5.072679 -0.302535
v 2.712969 6.132978 0.251705
v 2.717802 5.072679 -0.302535
v 2.233971 5.296887 -0.029617
v 2.712969 6.132978 0.251705
v 2.233971 5.296887 -0.029617
v 2.225619 5.300046 0.916560
v 2.712969 6.132978 0.251705
v 3.190536 5.072679 0.533015
v 3.195378 5.072679 -0.021228
v 2.712969 6.132978 0.251705
v 2.708127 5.072679 0.805947
v 3.190536 5.072679 0.533015
v 2.712969 6.132978 0.251705
v 2.225619 5.300046 0.916560
v 2.708127 5.072679 0.805947
v 2.825208 -0.322538 0.738903
v 2.225619 5.300046 0.916560
v 2.403360 -0.313473 0.739895
v 2.825208 -0.322538 0.738903
v 2.708127 5.072679 0.805947
v 2.225619 5.300046 0.916560
v 3.248370 -0.322538 0.499485
v 2.708127 5.072679 0.805947
v 2.825208 -0.322538 0.738903
v 3.248370 -0.322538 0.499485
v 3.190536 5.072679 0.533015
v 2.708127 5.072679 0.805947
v 3.252618 -0.322538 0.013307
v 3.190536 5.072679 0.533015
v 3.248370 -0.322538 0.499485
v 3.252618 -0.322538 0.013307
v 3.195378 5.072679 -0.021228
v 3.190536 5.072679 0.533015
v 2.833695 -0.316347 -0.233457
v 3.195378 5.072679 -0.021228
v 3.252618 -0.322538 0.013307
v 2.833695 -0.316347 -0.233457
v 2.717802 5.072679 -0.302535
v 3.195378 5.072679 -0.021228
v 2.410011 -0.328415 -0.108580
v 2.717802 5.072679 -0.302535
v 2.833695 -0.316347 -0.233457
v 2.410011 -0.328415 -0.108580
v 2.233971 5.296887 -0.029617
v 2.717802 5.072679 -0.302535
v 0.981297 4.873032 1.034640
v 1.688688 6.261822 0.405980
v 1.022670 4.870638 -0.131548
v 2.225619 5.300046 0.916560
v 1.688688 6.261822 0.405980
v 0.981297 4.873032 1.034640
# 177 vertices

vt 0.012077 0.879227
vt 0.137681 1.000000
vt 0.274247 0.879227
vt 0.250010 0.108910
vt 0.335200 0.108910
vt 0.335045 0.866573
vt 0.975474 0.874396
vt 0.850427 1.000000
vt 0.763471 0.874396
vt 0.768116 0.874396
vt 0.891304 1.000000
vt 0.978261 0.874396
vt 0.768116 0.874396
vt 0.891304 1.000000
vt 0.978261 0.874396
vt 0.768116 0.874396
vt 0.891304 1.000000
vt 0.978261 0.874396
vt 0.761365 0.874396
vt 0.597114 1.000000
vt 0.481172 0.874396
vt 0.485507 0.874396
vt 0.649758 1.000000
vt 0.765700 0.874396
vt 0.485507 0.874396
vt 0.649758 1.000000
vt 0.765700 0.874396
vt 0.485507 0.874396
vt 0.649758 1.000000
vt 0.765700 0.874396
vt 0.474730 0.882560
vt 0.359706 1.000000
vt 0.269793 0.882560
vt 0.272138 0.882560
vt 0.387162 1.000000
vt 0.486365 0.882560
vt 0.272138 0.882560
vt 0.387162 1.000000
vt 0.486365 0.882560
vt 0.272138 0.882560
vt 0.387162 1.000000
vt 0.486365 0.882560
vt 0.265762 0.876812
vt 0.144989 1.000000
vt 0.008423 0.879227
vt 0.010883 0.012804
vt 0.268258 0.878007
vt 0.009380 0.878094
vt 0.010883 0.012804
vt 0.474006 0.877938
vt 0.268258 0.878007
vt 0.474006 0.877938
vt 0.010883 0.012804
vt 0.986906 0.012481
vt 0.986906 0.012481
vt 0.762849 0.877842
vt 0.474006 0.877938
vt 0.986906 0.012481
vt 0.976434 0.877770
vt 0.762849 0.877842
vt 0.986906 0.012481
vt 0.768655 0.877840
vt 0.976434 0.877770
vt 0.986906 0.012481
vt 0.483993 0.877935
vt 0.768655 0.877840
vt 0.483993 0.877935
vt 0.986906 0.012481
vt 0.010883 0.012804
vt 0.010883 0.012804
vt 0.274779 0.878005
vt 0.483993 0.877935
vt 0.010883 0.012804
vt 0.009380 0.878094
vt 0.274779 0.878005
vt 0.613430 0.986240
vt 0.485487 0.866573
vt 0.586777 0.866573
vt 0.613430 0.986240
vt 0.756075 0.866573
vt 0.665552 0.866573
vt 0.613430 0.986240
vt 0.671426 0.866573
vt 0.756075 0.866573
vt 0.613430 0.986240
vt 0.586777 0.866573
vt 0.671426 0.866573
vt 0.613430 0.986240
vt 0.580903 0.866573
vt 0.496254 0.866573
vt 0.613430 0.986240
vt 0.665552 0.866573
vt 0.580903 0.866573
vt 0.592973 0.009876
vt 0.671426 0.866573
vt 0.586777 0.866573
vt 0.592973 0.009876
vt 0.674467 0.009876
vt 0.671426 0.866573
vt 0.674467 0.009876
vt 0.756075 0.866573
vt 0.671426 0.866573
vt 0.674467 0.009876
vt 0.755961 0.009876
vt 0.756075 0.866573
vt 0.755961 0.009876
vt 0.665552 0.866573
vt 0.756075 0.866573
vt 0.755961 0.009876
vt 0.668812 0.009876
vt 0.665552 0.866573
vt 0.668812 0.009876
vt 0.580903 0.866573
vt 0.665552 0.866573
vt 0.668812 0.009876
vt 0.587318 0.009876
vt 0.580903 0.866573
vt 0.587318 0.009876
vt 0.496254 0.866573
vt 0.580903 0.866573
vt 0.587318 0.009876
vt 0.505823 0.009876
vt 0.496254 0.866573
vt 0.615846 0.993486
vt 0.756075 0.866573
vt 0.671426 0.866573
vt 0.615846 0.993486
vt 0.671426 0.866573
vt 0.586777 0.866573
vt 0.615846 0.993486
vt 0.586777 0.866573
vt 0.485487 0.866573
vt 0.615846 0.993486
vt 0.665552 0.866573
vt 0.756075 0.866573
vt 0.615846 0.993486
vt 0.580903 0.866573
vt 0.665552 0.866573
vt 0.615846 0.993486
vt 0.496254 0.866573
vt 0.580903 0.866573
vt 0.587318 0.009876
vt 0.496254 0.866573
vt 0.505823 0.009876
vt 0.587318 0.009876
vt 0.580903 0.866573
vt 0.496254 0.866573
vt 0.668812 0.009876
vt 0.580903 0.866573
vt 0.587318 0.009876
vt 0.668812 0.009876
vt 0.665552 0.866573
vt 0.580903 0.866573
vt 0.755961 0.009876
vt 0.665552 0.866573
vt 0.668812 0.009876
vt 0.755961 0.009876
vt 0.756075 0.866573
vt 0.665552 0.866573
vt 0.674467 0.009876
vt 0.756075 0.866573
vt 0.755961 0.009876
vt 0.674467 0.009876
vt 0.671426 0.866573
vt 0.756075 0.866573
vt 0.592973 0.009876
vt 0.671426 0.866573
vt 0.674467 0.009876
vt 0.592973 0.009876
vt 0.586777 0.866573
vt 0.671426 0.866573
vt 0.012077 0.879227
vt 0.137681 1.000000
vt 0.274247 0.879227
vt 0.012077 0.879227
vt 0.137681 1.000000
vt 0.274247 0.879227
# 177 texture coordinates

vn -0.834987 0.388561 -0.389637
vn -0.029685 0.996030 0.083921
vn 0.926334 0.353790 -0.129375
vn 0.861629 -0.000124 0.507539
vn -0.507542 0.005780 0.861608
vn 0.477476 0.244568 0.843921
vn -0.918211 0.377805 -0.118963
vn 0.023122 0.988104 0.152036
vn -0.929795 0.368009 -0.007080
vn 0.937211 0.299684 -0.178395
vn 0.023122 0.988104 0.152036
vn -0.918211 0.377805 -0.118963
vn 0.927867 0.371730 -0.029660
vn 0.023122 0.988104 0.152036
vn 0.937211 0.299684 -0.178395
vn -0.929795 0.368009 -0.007080
vn 0.023122 0.988104 0.152036
vn 0.927867 0.371730 -0.029660
vn -0.929795 0.368009 -0.007080
vn 0.173607 0.983854 -0.043501
vn -0.894099 0.447770 0.009408
vn 0.927867 0.371730 -0.029660
vn 0.173607 0.983854 -0.043501
vn -0.929795 0.368009 -0.007080
vn 0.937128 0.346123 0.044607
vn 0.173607 0.983854 -0.043501
vn 0.927867 0.371730 -0.029660
vn -0.894099 0.447770 0.009408
vn 0.173607 0.983854 -0.043501
vn 0.937128 0.346123 0.044607
vn -0.894099 0.447770 0.009408
vn 0.131646 0.991164 0.016225
vn -0.904536 0.419458 0.076619
vn 0.937128 0.346123 0.044607
vn 0.131646 0.991164 0.016225
vn -0.894099 0.447770 0.009408
vn 0.901730 0.425035 0.078922
vn 0.131646 0.991164 0.016225
vn 0.937128 0.346123 0.044607
vn -0.904536 0.419458 0.076619
vn 0.131646 0.991164 0.016225
vn 0.901730 0.425035 0.078922
vn -0.904536 0.419458 0.076619
vn -0.029685 0.996030 0.083921
vn -0.834987 0.388561 -0.389637
vn -0.976544 -0.013934 0.214865
vn -0.904536 0.419458 0.076619
vn -0.834987 0.388561 -0.389637
vn -0.976544 -0.013934 0.214865
vn -0.894099 0.447770 0.009408
vn -0.904536 0.419458 0.076619
vn -0.894099 0.447770 0.009408
vn -0.976544 -0.013934 0.214865
vn -0.980015 -0.029117 -0.196779
vn -0.980015 -0.029117 -0.196779
vn -0.929795 0.368009 -0.007080
vn -0.894099 0.447770 0.009408
vn -0.980015 -0.029117 -0.196779
vn -0.918211 0.377805 -0.118963
vn -0.929795 0.368009 -0.007080
vn 0.994393 -0.041371 -0.097319
vn 0.927867 0.371730 -0.029660
vn 0.937211 0.299684 -0.178395
vn 0.994393 -0.041371 -0.097319
vn 0.937128 0.346123 0.044607
vn 0.927867 0.371730 -0.029660
vn 0.937128 0.346123 0.044607
vn 0.994393 -0.041371 -0.097319
vn 0.998355 -0.049803 0.028418
vn 0.998355 -0.049803 0.028418
vn 0.901730 0.425035 0.078922
vn 0.937128 0.346123 0.044607
vn 0.998355 -0.049803 0.028418
vn 0.926334 0.353790 -0.129375
vn 0.901730 0.425035 0.078922
vn 0.023940 0.997475 0.066863
vn 0.937211 0.299684 -0.178395
vn -0.918211 0.377805 -0.118963
vn 0.023940 0.997475 0.066863
vn -0.594777 0.194675 0.779963
vn 0.477476 0.244568 0.843921
vn 0.023940 0.997475 0.066863
vn -0.974893 0.183142 -0.126658
vn -0.594777 0.194675 0.779963
vn 0.023940 0.997475 0.066863
vn -0.918211 0.377805 -0.118963
vn -0.974893 0.183142 -0.126658
vn 0.023940 0.997475 0.066863
vn 0.962086 0.187097 0.198459
vn 0.937211 0.299684 -0.178395
vn 0.023940 0.997475 0.066863
vn 0.477476 0.244568 0.843921
vn 0.962086 0.187097 0.198459
vn -0.980015 -0.029117 -0.196779
vn -0.974893 0.183142 -0.126658
vn -0.918211 0.377805 -0.118963
vn -0.980015 -0.029117 -0.196779
vn -0.983552 -0.007894 0.180453
vn -0.974893 0.183142 -0.126658
vn -0.983552 -0.007894 0.180453
vn -0.594777 0.194675 0.779963
vn -0.974893 0.183142 -0.126658
vn -0.983552 -0.007894 0.180453
vn -0.507542 0.005780 0.861608
vn -0.594777 0.194675 0.779963
vn -0.507542 0.005780 0.861608
vn 0.477476 0.244568 0.843921
vn -0.594777 0.194675 0.779963
vn -0.507542 0.005780 0.861608
vn 0.861629 -0.000124 0.507539
vn 0.477476 0.244568 0.843921
vn 0.861629 -0.000124 0.507539
vn 0.962086 0.187097 0.198459
vn 0.477476 0.244568 0.843921
vn 0.861629 -0.000124 0.507539
vn 0.993797 -0.020863 -0.109231
vn 0.962086 0.187097 0.198459
vn 0.993797 -0.020863 -0.109231
vn 0.937211 0.299684 -0.178395
vn 0.962086 0.187097 0.198459
vn 0.993797 -0.020863 -0.109231
vn 0.994393 -0.041371 -0.097319
vn 0.937211 0.299684 -0.178395
vn -0.010098 0.925224 -0.379288
vn -0.581061 0.194791 -0.790205
vn -0.981732 0.189407 0.018076
vn -0.010098 0.925224 -0.379288
vn -0.981732 0.189407 0.018076
vn -0.676608 0.367416 0.638128
vn -0.010098 0.925224 -0.379288
vn -0.676608 0.367416 0.638128
vn 0.926334 0.353790 -0.129375
vn -0.010098 0.925224 -0.379288
vn 0.393630 0.197214 -0.897865
vn -0.581061 0.194791 -0.790205
vn -0.010098 0.925224 -0.379288
vn 0.891051 0.171018 -0.420453
vn 0.393630 0.197214 -0.897865
vn -0.010098 0.925224 -0.379288
vn 0.926334 0.353790 -0.129375
vn 0.891051 0.171018 -0.420453
vn 0.969822 -0.013251 -0.243455
vn 0.926334 0.353790 -0.129375
vn 0.998355 -0.049803 0.028418
vn 0.969822 -0.013251 -0.243455
vn 0.891051 0.171018 -0.420453
vn 0.926334 0.353790 -0.129375
vn 0.661231 0.003932 -0.750172
vn 0.891051 0.171018 -0.420453
vn 0.969822 -0.013251 -0.243455
vn 0.661231 0.003932 -0.750172
vn 0.393630 0.197214 -0.897865
vn 0.891051 0.171018 -0.420453
vn -0.319072 0.008013 -0.947697
vn 0.393630 0.197214 -0.897865
vn 0.661231 0.003932 -0.750172
vn -0.319072 0.008013 -0.947697
vn -0.581061 0.194791 -0.790205
vn 0.393630 0.197214 -0.897865
vn -0.964622 -0.006698 -0.263551
vn -0.581061 0.194791 -0.790205
vn -0.319072 0.008013 -0.947697
vn -0.964622 -0.006698 -0.263551
vn -0.981732 0.189407 0.018076
vn -0.581061 0.194791 -0.790205
vn -0.976544 -0.013934 0.214865
vn -0.981732 0.189407 0.018076
vn -0.964622 -0.006698 -0.263551
vn -0.976544 -0.013934 0.214865
vn -0.676608 0.367416 0.638128
vn -0.981732 0.189407 0.018076
vn 0.901730 0.425035 0.078922
vn -0.029685 0.996030 0.083921
vn -0.904536 0.419458 0.076619
vn 0.926334 0.353790 -0.129375
vn -0.029685 0.996030 0.083921
vn 0.901730 0.425035 0.078922
# 177 normals

g Geoset_000
usemtl PalasadeGateWood02
s 1
f 1/1/1 2/2/2 3/3/3
f 4/4/4 5/5/5 6/6/6
f 7/7/7 8/8/8 9/9/9
f 10/10/10 11/11/11 12/12/12
f 13/13/13 14/14/14 15/15/15
f 16/16/16 17/17/17 18/18/18
f 19/19/19 20/20/20 21/21/21
f 22/22/22 23/23/23 24/24/24
f 25/25/25 26/26/26 27/27/27
f 28/28/28 29/29/29 30/30/30
f 31/31/31 32/32/32 33/33/33
f 34/34/34 35/35/35 36/36/36
f 37/37/37 38/38/38 39/39/39
f 40/40/40 41/41/41 42/42/42
f 43/43/43 44/44/44 45/45/45
f 46/46/46 47/47/47 48/48/48
f 49/49/49 50/50/50 51/51/51
f 52/52/52 53/53/53 54/54/54
f 55/55/55 56/56/56 57/57/57
f 58/58/58 59/59/59 60/60/60
f 61/61/61 62/62/62 63/63/63
f 64/64/64 65/65/65 66/66/66
f 67/67/67 68/68/68 69/69/69
f 70/70/70 71/71/71 72/72/72
f 73/73/73 74/74/74 75/75/75
f 76/76/76 77/77/77 78/78/78
f 79/79/79 80/80/80 81/81/81
f 82/82/82 83/83/83 84/84/84
f 85/85/85 86/86/86 87/87/87
f 88/88/88 89/89/89 90/90/90
f 91/91/91 92/92/92 93/93/93
f 94/94/94 95/95/95 96/96/96
f 97/97/97 98/98/98 99/99/99
f 100/100/100 101/101/101 102/102/102
f 103/103/103 104/104/104 105/105/105
f 106/106/106 107/107/107 108/108/108
f 109/109/109 110/110/110 111/111/111
f 112/112/112 113/113/113 114/114/114
f 115/115/115 116/116/116 117/117/117
f 118/118/118 119/119/119 120/120/120
f 121/121/121 122/122/122 123/123/123
f 124/124/124 125/125/125 126/126/126
f 127/127/127 128/128/128 129/129/129
f 130/130/130 131/131/131 132/132/132
f 133/133/133 134/134/134 135/135/135
f 136/136/136 137/137/137 138/138/138
f 139/139/139 140/140/140 141/141/141
f 142/142/142 143/143/143 144/144/144
f 145/145/145 146/146/146 147/147/147
f 148/148/148 149/149/149 150/150/150
f 151/151/151 152/152/152 153/153/153
f 154/154/154 155/155/155 156/156/156
f 157/157/157 158/158/158 159/159/159
f 160/160/160 161/161/161 162/162/162
f 163/163/163 164/164/164 165/165/165
f 166/166/166 167/167/167 168/168/168
f 169/169/169 170/170/170 171/171/171
f 172/172/172 173/173/173 174/174/174
f 175/175/175 176/176/176 177/177/177
# 59 triangles in group

# 59 triangles total

