{ 
"positions": 
[[-78.13782046,-187.0451532,84.82077062],
[-152.509364,-187.0451532,84.82077062],
[-371.0063698,-101.2354691,84.82077062],
[-229.4268678,81.35326688,84.82077062],
[-346.1626444,21.98039076,84.82077062]
]}