# 3ds Max Wavefront OBJ Exporter v0.97b - (c)2007 guruware
# File Created: 19.03.2013 21:17:12

newmtl Default
	Ns 50.000000
	Ni 1.500000
	d 1.000000
	Tr 0.000000
	Tf 1.000000 1.000000 1.000000 
	illum 2
	Ka 0.700000 0.700000 0.700000
	Kd 0.700000 0.700000 0.700000
	Ks 0.707000 0.707000 0.707000
	Ke 0.000000 0.000000 0.000000
