#
# darkironkegwstand01.mtl
#

newmtl DARKIRONKEG
illum 2
Kd 1.000000 1.000000 1.000000
Ka 0.250000 0.250000 0.250000
Ks 0.000000 0.000000 0.000000
Ke 0.000000 0.000000 0.000000
Ns 0.000000
map_Kd WORLD/GENERIC/DARKIRONDWARF/PASSIVE DOODADS/KEGS/DARKIRONKEG.tga

